%YAML 1.1
%TAG !u! tag:unity3d.com,2011:
--- !u!74 &7400000
AnimationClip:
  m_ObjectHideFlags: 0
  m_CorrespondingSourceObject: {fileID: 0}
  m_PrefabInstance: {fileID: 0}
  m_PrefabAsset: {fileID: 0}
  m_Name: logo
  serializedVersion: 6
  m_Legacy: 0
  m_Compressed: 0
  m_UseHighQualityCurve: 1
  m_RotationCurves: []
  m_CompressedRotationCurves: []
  m_EulerCurves: []
  m_PositionCurves: []
  m_ScaleCurves: []
  m_FloatCurves:
  - curve:
      serializedVersion: 2
      m_Curve:
      - serializedVersion: 3
        time: 0
        value: 1
        inSlope: Infinity
        outSlope: Infinity
        tangentMode: 103
        weightedMode: 0
        inWeight: 0
        outWeight: 0
      - serializedVersion: 3
        time: 6.5833335
        value: 0
        inSlope: Infinity
        outSlope: Infinity
        tangentMode: 103
        weightedMode: 0
        inWeight: 0
        outWeight: 0
      m_PreInfinity: 2
      m_PostInfinity: 2
      m_RotationOrder: 4
    attribute: m_Enabled
    path: 
    classID: 212
    script: {fileID: 0}
  - curve:
      serializedVersion: 2
      m_Curve:
      - serializedVersion: 3
        time: 0
        value: 1
        inSlope: 0
        outSlope: 0
        tangentMode: 136
        weightedMode: 0
        inWeight: 0.33333334
        outWeight: 0.33333334
      - serializedVersion: 3
        time: 1.5
        value: 0
        inSlope: 0
        outSlope: 0
        tangentMode: 136
        weightedMode: 0
        inWeight: 0.33333334
        outWeight: 0.33333334
      - serializedVersion: 3
        time: 5
        value: 0
        inSlope: 0
        outSlope: 0
        tangentMode: 136
        weightedMode: 0
        inWeight: 0.33333334
        outWeight: 0.33333334
      - serializedVersion: 3
        time: 6.5833335
        value: 1
        inSlope: 0
        outSlope: 0
        tangentMode: 136
        weightedMode: 0
        inWeight: 0.33333334
        outWeight: 0.33333334
      - serializedVersion: 3
        time: 8
        value: 0
        inSlope: 0
        outSlope: 0
        tangentMode: 136
        weightedMode: 0
        inWeight: 0.33333334
        outWeight: 0.33333334
      m_PreInfinity: 2
      m_PostInfinity: 2
      m_RotationOrder: 4
    attribute: m_Color.a
    path: Canvas/Image
    classID: 114
    script: {fileID: -765806418, guid: f70555f144d8491a825f0804e09c671c, type: 3}
  m_PPtrCurves:
  - curve:
    - time: 0
      value: {fileID: 21300000, guid: 67a222e2a21cec648bdb3cb66fbbcd80, type: 3}
    - time: 0.083333336
      value: {fileID: 21300000, guid: fba816b608607f34f9dcc63c20bffc96, type: 3}
    - time: 0.16666667
      value: {fileID: 21300000, guid: 918a3ad6ab544e34a90983f993640478, type: 3}
    - time: 0.25
      value: {fileID: 21300000, guid: 59ce9c23b6e1768478165aa571f77dd0, type: 3}
    - time: 0.33333334
      value: {fileID: 21300000, guid: 7305258bfb9ba33449343a0e5f90e5c4, type: 3}
    - time: 0.41666666
      value: {fileID: 21300000, guid: 0fe3896783628e34eb20839dc6276a5d, type: 3}
    - time: 0.5
      value: {fileID: 21300000, guid: 882cb771cf4bc0742b62d262d5ef879d, type: 3}
    - time: 0.5833333
      value: {fileID: 21300000, guid: 406a8e5eff62bd34f90b88583c0e7df8, type: 3}
    - time: 0.6666667
      value: {fileID: 21300000, guid: 8c3eecec9c4fb1340bddcff851800b13, type: 3}
    - time: 0.75
      value: {fileID: 21300000, guid: 53ad143d0cdb00b4ea804875188576b8, type: 3}
    - time: 0.8333333
      value: {fileID: 21300000, guid: 6fd63ad05edd6e44baf4598c8fc747af, type: 3}
    - time: 0.9166667
      value: {fileID: 21300000, guid: b61702eddbb5fce4493b9e8b7603b852, type: 3}
    - time: 1
      value: {fileID: 21300000, guid: 73e0cc4187c5ca74abedfba9315a2621, type: 3}
    - time: 1.0833334
      value: {fileID: 21300000, guid: b5185203974dc154e9df085b863f661b, type: 3}
    - time: 1.1666666
      value: {fileID: 21300000, guid: 2b8a209425fa86f4c91dcd1b7fda2671, type: 3}
    - time: 1.25
      value: {fileID: 21300000, guid: e390ad46a8a15604baec1b3457eac02a, type: 3}
    - time: 1.3333334
      value: {fileID: 21300000, guid: 87bb0192bc8afe844a839daeb5d745b6, type: 3}
    - time: 1.4166666
      value: {fileID: 21300000, guid: 6cea886d07869ba4cb0440bb8b9a1fd0, type: 3}
    - time: 1.5
      value: {fileID: 21300000, guid: 32e7a72af5313c94894ea002fcb0c17c, type: 3}
    - time: 1.5833334
      value: {fileID: 21300000, guid: fd70b1043b02979488052b5f7ae79652, type: 3}
    - time: 1.6666666
      value: {fileID: 21300000, guid: 7855ca44f5bc9694a8e138ce80636c2a, type: 3}
    - time: 1.75
      value: {fileID: 21300000, guid: 8dce3246d5a4f0a4ba5af2f100284398, type: 3}
    - time: 1.8333334
      value: {fileID: 21300000, guid: 99e993e3e43f79942ad4ec0df69301cd, type: 3}
    - time: 1.9166666
      value: {fileID: 21300000, guid: 294ea6e127ad1b44e904fe73bc8e5a0a, type: 3}
    - time: 2
      value: {fileID: 21300000, guid: d84dbe4c6a950fc46897c8fcc252fea4, type: 3}
    - time: 2.0833333
      value: {fileID: 21300000, guid: 70313664eb580474cb838c2da45454e6, type: 3}
    - time: 2.1666667
      value: {fileID: 21300000, guid: a247e907077c6df4d8a7e98882d47cca, type: 3}
    - time: 2.25
      value: {fileID: 21300000, guid: 3f3ffd38d6f34a74a8efe7e3aec73801, type: 3}
    - time: 2.3333333
      value: {fileID: 21300000, guid: 18a69383e830267468f7d39c20fd87b1, type: 3}
    - time: 2.4166667
      value: {fileID: 21300000, guid: c3bdfd15fb6116440b3528e2cba87942, type: 3}
    - time: 2.5
      value: {fileID: 21300000, guid: 25f0dd54612d4b647883934201e16b5b, type: 3}
    - time: 2.5833333
      value: {fileID: 21300000, guid: 4d030de222764bb4cb595eecb62bffbb, type: 3}
    - time: 2.6666667
      value: {fileID: 21300000, guid: 30ce0ef51a480a34b9f6438f0ae3c505, type: 3}
    - time: 2.75
      value: {fileID: 21300000, guid: b9989891e3650e0459204f821fcf8816, type: 3}
    - time: 2.8333333
      value: {fileID: 21300000, guid: af9e3df242a66414d92f795855bf444a, type: 3}
    - time: 2.9166667
      value: {fileID: 21300000, guid: 54da73bb93c081248ab91d1ee26f7968, type: 3}
    - time: 3
      value: {fileID: 21300000, guid: 2141f6b56af6fba4f8f121c76609ac5f, type: 3}
    - time: 3.0833333
      value: {fileID: 21300000, guid: eceab0e2f817c5a4f8a4622f1b8c3b2d, type: 3}
    - time: 3.1666667
      value: {fileID: 21300000, guid: 36712343336d84343a717c5a33e29845, type: 3}
    - time: 3.25
      value: {fileID: 21300000, guid: 67a222e2a21cec648bdb3cb66fbbcd80, type: 3}
    - time: 3.3333333
      value: {fileID: 21300000, guid: fba816b608607f34f9dcc63c20bffc96, type: 3}
    - time: 3.4166667
      value: {fileID: 21300000, guid: 918a3ad6ab544e34a90983f993640478, type: 3}
    - time: 3.5
      value: {fileID: 21300000, guid: 59ce9c23b6e1768478165aa571f77dd0, type: 3}
    - time: 3.5833333
      value: {fileID: 21300000, guid: 7305258bfb9ba33449343a0e5f90e5c4, type: 3}
    - time: 3.6666667
      value: {fileID: 21300000, guid: 0fe3896783628e34eb20839dc6276a5d, type: 3}
    - time: 3.75
      value: {fileID: 21300000, guid: 882cb771cf4bc0742b62d262d5ef879d, type: 3}
    - time: 3.8333333
      value: {fileID: 21300000, guid: 406a8e5eff62bd34f90b88583c0e7df8, type: 3}
    - time: 3.9166667
      value: {fileID: 21300000, guid: 8c3eecec9c4fb1340bddcff851800b13, type: 3}
    - time: 4
      value: {fileID: 21300000, guid: 53ad143d0cdb00b4ea804875188576b8, type: 3}
    - time: 4.0833335
      value: {fileID: 21300000, guid: 6fd63ad05edd6e44baf4598c8fc747af, type: 3}
    - time: 4.1666665
      value: {fileID: 21300000, guid: b61702eddbb5fce4493b9e8b7603b852, type: 3}
    - time: 4.25
      value: {fileID: 21300000, guid: 73e0cc4187c5ca74abedfba9315a2621, type: 3}
    - time: 4.3333335
      value: {fileID: 21300000, guid: b5185203974dc154e9df085b863f661b, type: 3}
    - time: 4.4166665
      value: {fileID: 21300000, guid: 2b8a209425fa86f4c91dcd1b7fda2671, type: 3}
    - time: 4.5
      value: {fileID: 21300000, guid: e390ad46a8a15604baec1b3457eac02a, type: 3}
    - time: 4.5833335
      value: {fileID: 21300000, guid: 87bb0192bc8afe844a839daeb5d745b6, type: 3}
    - time: 4.6666665
      value: {fileID: 21300000, guid: 6cea886d07869ba4cb0440bb8b9a1fd0, type: 3}
    - time: 4.75
      value: {fileID: 21300000, guid: 32e7a72af5313c94894ea002fcb0c17c, type: 3}
    - time: 4.8333335
      value: {fileID: 21300000, guid: fd70b1043b02979488052b5f7ae79652, type: 3}
    - time: 4.9166665
      value: {fileID: 21300000, guid: 7855ca44f5bc9694a8e138ce80636c2a, type: 3}
    - time: 5
      value: {fileID: 21300000, guid: 8dce3246d5a4f0a4ba5af2f100284398, type: 3}
    - time: 5.0833335
      value: {fileID: 21300000, guid: 99e993e3e43f79942ad4ec0df69301cd, type: 3}
    - time: 5.1666665
      value: {fileID: 21300000, guid: 294ea6e127ad1b44e904fe73bc8e5a0a, type: 3}
    - time: 5.25
      value: {fileID: 21300000, guid: d84dbe4c6a950fc46897c8fcc252fea4, type: 3}
    - time: 5.3333335
      value: {fileID: 21300000, guid: 70313664eb580474cb838c2da45454e6, type: 3}
    - time: 5.4166665
      value: {fileID: 21300000, guid: a247e907077c6df4d8a7e98882d47cca, type: 3}
    - time: 5.5
      value: {fileID: 21300000, guid: 3f3ffd38d6f34a74a8efe7e3aec73801, type: 3}
    - time: 5.5833335
      value: {fileID: 21300000, guid: 18a69383e830267468f7d39c20fd87b1, type: 3}
    - time: 5.6666665
      value: {fileID: 21300000, guid: c3bdfd15fb6116440b3528e2cba87942, type: 3}
    - time: 5.75
      value: {fileID: 21300000, guid: 25f0dd54612d4b647883934201e16b5b, type: 3}
    - time: 5.8333335
      value: {fileID: 21300000, guid: 4d030de222764bb4cb595eecb62bffbb, type: 3}
    - time: 5.9166665
      value: {fileID: 21300000, guid: 30ce0ef51a480a34b9f6438f0ae3c505, type: 3}
    - time: 6
      value: {fileID: 21300000, guid: b9989891e3650e0459204f821fcf8816, type: 3}
    - time: 6.0833335
      value: {fileID: 21300000, guid: af9e3df242a66414d92f795855bf444a, type: 3}
    - time: 6.1666665
      value: {fileID: 21300000, guid: 54da73bb93c081248ab91d1ee26f7968, type: 3}
    - time: 6.25
      value: {fileID: 21300000, guid: 2141f6b56af6fba4f8f121c76609ac5f, type: 3}
    - time: 6.3333335
      value: {fileID: 21300000, guid: eceab0e2f817c5a4f8a4622f1b8c3b2d, type: 3}
    - time: 6.4166665
      value: {fileID: 21300000, guid: 36712343336d84343a717c5a33e29845, type: 3}
    - time: 6.5
      value: {fileID: 21300000, guid: dd5cfdc07ca81194fa3545fd9f932206, type: 3}
    attribute: m_Sprite
    path: 
    classID: 212
    script: {fileID: 0}
  m_SampleRate: 12
  m_WrapMode: 0
  m_Bounds:
    m_Center: {x: 0, y: 0, z: 0}
    m_Extent: {x: 0, y: 0, z: 0}
  m_ClipBindingConstant:
    genericBindings:
    - serializedVersion: 2
      path: 0
      attribute: 3305885265
      script: {fileID: 0}
      typeID: 212
      customType: 0
      isPPtrCurve: 0
    - serializedVersion: 2
      path: 335570237
      attribute: 304273561
      script: {fileID: -765806418, guid: f70555f144d8491a825f0804e09c671c, type: 3}
      typeID: 114
      customType: 0
      isPPtrCurve: 0
    - serializedVersion: 2
      path: 0
      attribute: 0
      script: {fileID: 0}
      typeID: 212
      customType: 23
      isPPtrCurve: 1
    pptrCurveMapping:
    - {fileID: 21300000, guid: 67a222e2a21cec648bdb3cb66fbbcd80, type: 3}
    - {fileID: 21300000, guid: fba816b608607f34f9dcc63c20bffc96, type: 3}
    - {fileID: 21300000, guid: 918a3ad6ab544e34a90983f993640478, type: 3}
    - {fileID: 21300000, guid: 59ce9c23b6e1768478165aa571f77dd0, type: 3}
    - {fileID: 21300000, guid: 7305258bfb9ba33449343a0e5f90e5c4, type: 3}
    - {fileID: 21300000, guid: 0fe3896783628e34eb20839dc6276a5d, type: 3}
    - {fileID: 21300000, guid: 882cb771cf4bc0742b62d262d5ef879d, type: 3}
    - {fileID: 21300000, guid: 406a8e5eff62bd34f90b88583c0e7df8, type: 3}
    - {fileID: 21300000, guid: 8c3eecec9c4fb1340bddcff851800b13, type: 3}
    - {fileID: 21300000, guid: 53ad143d0cdb00b4ea804875188576b8, type: 3}
    - {fileID: 21300000, guid: 6fd63ad05edd6e44baf4598c8fc747af, type: 3}
    - {fileID: 21300000, guid: b61702eddbb5fce4493b9e8b7603b852, type: 3}
    - {fileID: 21300000, guid: 73e0cc4187c5ca74abedfba9315a2621, type: 3}
    - {fileID: 21300000, guid: b5185203974dc154e9df085b863f661b, type: 3}
    - {fileID: 21300000, guid: 2b8a209425fa86f4c91dcd1b7fda2671, type: 3}
    - {fileID: 21300000, guid: e390ad46a8a15604baec1b3457eac02a, type: 3}
    - {fileID: 21300000, guid: 87bb0192bc8afe844a839daeb5d745b6, type: 3}
    - {fileID: 21300000, guid: 6cea886d07869ba4cb0440bb8b9a1fd0, type: 3}
    - {fileID: 21300000, guid: 32e7a72af5313c94894ea002fcb0c17c, type: 3}
    - {fileID: 21300000, guid: fd70b1043b02979488052b5f7ae79652, type: 3}
    - {fileID: 21300000, guid: 7855ca44f5bc9694a8e138ce80636c2a, type: 3}
    - {fileID: 21300000, guid: 8dce3246d5a4f0a4ba5af2f100284398, type: 3}
    - {fileID: 21300000, guid: 99e993e3e43f79942ad4ec0df69301cd, type: 3}
    - {fileID: 21300000, guid: 294ea6e127ad1b44e904fe73bc8e5a0a, type: 3}
    - {fileID: 21300000, guid: d84dbe4c6a950fc46897c8fcc252fea4, type: 3}
    - {fileID: 21300000, guid: 70313664eb580474cb838c2da45454e6, type: 3}
    - {fileID: 21300000, guid: a247e907077c6df4d8a7e98882d47cca, type: 3}
    - {fileID: 21300000, guid: 3f3ffd38d6f34a74a8efe7e3aec73801, type: 3}
    - {fileID: 21300000, guid: 18a69383e830267468f7d39c20fd87b1, type: 3}
    - {fileID: 21300000, guid: c3bdfd15fb6116440b3528e2cba87942, type: 3}
    - {fileID: 21300000, guid: 25f0dd54612d4b647883934201e16b5b, type: 3}
    - {fileID: 21300000, guid: 4d030de222764bb4cb595eecb62bffbb, type: 3}
    - {fileID: 21300000, guid: 30ce0ef51a480a34b9f6438f0ae3c505, type: 3}
    - {fileID: 21300000, guid: b9989891e3650e0459204f821fcf8816, type: 3}
    - {fileID: 21300000, guid: af9e3df242a66414d92f795855bf444a, type: 3}
    - {fileID: 21300000, guid: 54da73bb93c081248ab91d1ee26f7968, type: 3}
    - {fileID: 21300000, guid: 2141f6b56af6fba4f8f121c76609ac5f, type: 3}
    - {fileID: 21300000, guid: eceab0e2f817c5a4f8a4622f1b8c3b2d, type: 3}
    - {fileID: 21300000, guid: 36712343336d84343a717c5a33e29845, type: 3}
    - {fileID: 21300000, guid: 67a222e2a21cec648bdb3cb66fbbcd80, type: 3}
    - {fileID: 21300000, guid: fba816b608607f34f9dcc63c20bffc96, type: 3}
    - {fileID: 21300000, guid: 918a3ad6ab544e34a90983f993640478, type: 3}
    - {fileID: 21300000, guid: 59ce9c23b6e1768478165aa571f77dd0, type: 3}
    - {fileID: 21300000, guid: 7305258bfb9ba33449343a0e5f90e5c4, type: 3}
    - {fileID: 21300000, guid: 0fe3896783628e34eb20839dc6276a5d, type: 3}
    - {fileID: 21300000, guid: 882cb771cf4bc0742b62d262d5ef879d, type: 3}
    - {fileID: 21300000, guid: 406a8e5eff62bd34f90b88583c0e7df8, type: 3}
    - {fileID: 21300000, guid: 8c3eecec9c4fb1340bddcff851800b13, type: 3}
    - {fileID: 21300000, guid: 53ad143d0cdb00b4ea804875188576b8, type: 3}
    - {fileID: 21300000, guid: 6fd63ad05edd6e44baf4598c8fc747af, type: 3}
    - {fileID: 21300000, guid: b61702eddbb5fce4493b9e8b7603b852, type: 3}
    - {fileID: 21300000, guid: 73e0cc4187c5ca74abedfba9315a2621, type: 3}
    - {fileID: 21300000, guid: b5185203974dc154e9df085b863f661b, type: 3}
    - {fileID: 21300000, guid: 2b8a209425fa86f4c91dcd1b7fda2671, type: 3}
    - {fileID: 21300000, guid: e390ad46a8a15604baec1b3457eac02a, type: 3}
    - {fileID: 21300000, guid: 87bb0192bc8afe844a839daeb5d745b6, type: 3}
    - {fileID: 21300000, guid: 6cea886d07869ba4cb0440bb8b9a1fd0, type: 3}
    - {fileID: 21300000, guid: 32e7a72af5313c94894ea002fcb0c17c, type: 3}
    - {fileID: 21300000, guid: fd70b1043b02979488052b5f7ae79652, type: 3}
    - {fileID: 21300000, guid: 7855ca44f5bc9694a8e138ce80636c2a, type: 3}
    - {fileID: 21300000, guid: 8dce3246d5a4f0a4ba5af2f100284398, type: 3}
    - {fileID: 21300000, guid: 99e993e3e43f79942ad4ec0df69301cd, type: 3}
    - {fileID: 21300000, guid: 294ea6e127ad1b44e904fe73bc8e5a0a, type: 3}
    - {fileID: 21300000, guid: d84dbe4c6a950fc46897c8fcc252fea4, type: 3}
    - {fileID: 21300000, guid: 70313664eb580474cb838c2da45454e6, type: 3}
    - {fileID: 21300000, guid: a247e907077c6df4d8a7e98882d47cca, type: 3}
    - {fileID: 21300000, guid: 3f3ffd38d6f34a74a8efe7e3aec73801, type: 3}
    - {fileID: 21300000, guid: 18a69383e830267468f7d39c20fd87b1, type: 3}
    - {fileID: 21300000, guid: c3bdfd15fb6116440b3528e2cba87942, type: 3}
    - {fileID: 21300000, guid: 25f0dd54612d4b647883934201e16b5b, type: 3}
    - {fileID: 21300000, guid: 4d030de222764bb4cb595eecb62bffbb, type: 3}
    - {fileID: 21300000, guid: 30ce0ef51a480a34b9f6438f0ae3c505, type: 3}
    - {fileID: 21300000, guid: b9989891e3650e0459204f821fcf8816, type: 3}
    - {fileID: 21300000, guid: af9e3df242a66414d92f795855bf444a, type: 3}
    - {fileID: 21300000, guid: 54da73bb93c081248ab91d1ee26f7968, type: 3}
    - {fileID: 21300000, guid: 2141f6b56af6fba4f8f121c76609ac5f, type: 3}
    - {fileID: 21300000, guid: eceab0e2f817c5a4f8a4622f1b8c3b2d, type: 3}
    - {fileID: 21300000, guid: 36712343336d84343a717c5a33e29845, type: 3}
    - {fileID: 21300000, guid: dd5cfdc07ca81194fa3545fd9f932206, type: 3}
  m_AnimationClipSettings:
    serializedVersion: 2
    m_AdditiveReferencePoseClip: {fileID: 0}
    m_AdditiveReferencePoseTime: 0
    m_StartTime: 0
    m_StopTime: 8
    m_OrientationOffsetY: 0
    m_Level: 0
    m_CycleOffset: 0
    m_HasAdditiveReferencePose: 0
    m_LoopTime: 0
    m_LoopBlend: 0
    m_LoopBlendOrientation: 0
    m_LoopBlendPositionY: 0
    m_LoopBlendPositionXZ: 0
    m_KeepOriginalOrientation: 0
    m_KeepOriginalPositionY: 1
    m_KeepOriginalPositionXZ: 0
    m_HeightFromFeet: 0
    m_Mirror: 0
  m_EditorCurves:
  - curve:
      serializedVersion: 2
      m_Curve:
      - serializedVersion: 3
        time: 0
        value: 1
        inSlope: Infinity
        outSlope: Infinity
        tangentMode: 103
        weightedMode: 0
        inWeight: 0
        outWeight: 0
      - serializedVersion: 3
        time: 6.5833335
        value: 0
        inSlope: Infinity
        outSlope: Infinity
        tangentMode: 103
        weightedMode: 0
        inWeight: 0
        outWeight: 0
      m_PreInfinity: 2
      m_PostInfinity: 2
      m_RotationOrder: 4
    attribute: m_Enabled
    path: 
    classID: 212
    script: {fileID: 0}
  - curve:
      serializedVersion: 2
      m_Curve:
      - serializedVersion: 3
        time: 0
        value: 1
        inSlope: 0
        outSlope: 0
        tangentMode: 136
        weightedMode: 0
        inWeight: 0.33333334
        outWeight: 0.33333334
      - serializedVersion: 3
        time: 1.5
        value: 0
        inSlope: 0
        outSlope: 0
        tangentMode: 136
        weightedMode: 0
        inWeight: 0.33333334
        outWeight: 0.33333334
      - serializedVersion: 3
        time: 5
        value: 0
        inSlope: 0
        outSlope: 0
        tangentMode: 136
        weightedMode: 0
        inWeight: 0.33333334
        outWeight: 0.33333334
      - serializedVersion: 3
        time: 6.5833335
        value: 1
        inSlope: 0
        outSlope: 0
        tangentMode: 136
        weightedMode: 0
        inWeight: 0.33333334
        outWeight: 0.33333334
      - serializedVersion: 3
        time: 8
        value: 0
        inSlope: 0
        outSlope: 0
        tangentMode: 136
        weightedMode: 0
        inWeight: 0.33333334
        outWeight: 0.33333334
      m_PreInfinity: 2
      m_PostInfinity: 2
      m_RotationOrder: 4
    attribute: m_Color.a
    path: Canvas/Image
    classID: 114
    script: {fileID: -765806418, guid: f70555f144d8491a825f0804e09c671c, type: 3}
  m_EulerEditorCurves: []
  m_HasGenericRootTransform: 0
  m_HasMotionFloatCurves: 0
  m_Events:
  - time: 6.5833335
    functionName: Invocar
    data: 
    objectReferenceParameter: {fileID: 0}
    floatParameter: 0
    intParameter: 0
    messageOptions: 0
